…
Basic searches uses an analyzer that independently converts each part
into tokens before returning matching documents:

``` r
query <- "(new york city) OR (big apple)"
out <- query_text(query)
out %>% unnest()
```

    Warning: `cols` is now required when using unnest().
    Please use `cols = c(hightlight)`

    # A tibble: 41 × 4
       guid_hash            pg_nr type     hightlight                               
       <chr>                <int> <chr>    <chr>                                    
     1 8b53b078c4a68bd218b9   460 pdftools Still, --New-- --York-- is at best an ex…
     2 8b53b078c4a68bd218b9   460 pdftools Neither London nor Paris compares with -…
     3 8b53b078c4a68bd218b9   460 pdftools While the --New-- --York-- hotels give y…
     4 8b53b078c4a68bd218b9   460 pdftools Some of the --big-- watering-place hotel…
     5 8b53b078c4a68bd218b9   460 pdftools As for restaurants, Paris has fine ones,…
     6 b8c28359ed8d9c6f5894    17 pdftools H^orrfctiou --CITY-- OF --NEW-- --YORK--…
     7 b8c28359ed8d9c6f5894    17 pdftools University of the --City-- of Nnv --York…
     8 b8c28359ed8d9c6f5894    17 pdftools By henry DEAPEE, M.D., Professor of Anal…
     9 e1062b1058b2257f9336   440 pdftools --New-- --York-- in 1879 imported 2,740,…
    10 e1062b1058b2257f9336   440 pdftools The West Indies is the chief seat of Pin…
    # … with 31 more rows

A term can be a single word *quick* or *brown* - or a phrase, surrounded
by double quotes - “quick brown”

``` r
query <- '"new york"'
out <- query_text(query)
out %>% unnest()
```

    Warning: `cols` is now required when using unnest().
    Please use `cols = c(hightlight)`

    # A tibble: 38 × 4
       guid_hash            pg_nr type     hightlight                               
       <chr>                <int> <chr>    <chr>                                    
     1 7ca8d2a7f75a7d7b97c6   340 ocr      Vail, --New-- --York--, N. Y. 3          
     2 7ca8d2a7f75a7d7b97c6   340 ocr      --New-- --York--, N. Y. John E. Hudson, …
     3 7ca8d2a7f75a7d7b97c6   340 ocr      James, --New-- --York--, N. Y. Miss Loui…
     4 7ca8d2a7f75a7d7b97c6   340 ocr      Esther Herrmann, --New-- --York--, N. Y.…
     5 7ca8d2a7f75a7d7b97c6   340 ocr      Gillingham, --New-- --York--, N. Y. Miss…
     6 7ca8d2a7f75a7d7b97c6   340 ocr      Meyer, --New-- --York--, N. Y. John Ervi…
     7 7ca8d2a7f75a7d7b97c6   339 ocr      Isaac Adler, --New-- --York--, N. Y. Sam…
     8 7ca8d2a7f75a7d7b97c6   339 ocr      Daly, --New-- --York--, N. Y. a Charles …
     9 90e6ef9db342542a755c     3 pdftools --NEW-- --YORK-- TROW DIRECTORY, PRINTIN…
    10 90e6ef9db342542a755c     3 pdftools CHIEF OF CLINIC, NERVOUS DEPARTMENT, VAN…
    # … with 28 more rows
…
The preferred operators are `+` (this term must be present) and `-`
(this term must not be present). All other terms are optional. For
example, this query:

``` r
query <- "crocodile shoot +hunting -shoes"
out <- query_text(query)
out %>% unnest()
```

    Warning: `cols` is now required when using unnest().
    Please use `cols = c(hightlight)`

    # A tibble: 44 × 4
       guid_hash            pg_nr type     hightlight                               
       <chr>                <int> <chr>    <chr>                                    
     1 a84cdc9a0e701b6360fe   135 pdftools I took a rifle from one of my boys, and …
     2 a84cdc9a0e701b6360fe   135 pdftools I had completely recovered from my littl…
     3 a84cdc9a0e701b6360fe   135 pdftools of a --crocodile-- appeared in the middl…
     4 a84cdc9a0e701b6360fe   135 pdftools A --CROCODILE-- GIVES US A CHILL. 113 st…
     5 5d764eb59b5587e5e03b    20 pdftools --Hunting-- again â€”The Premier Nimrod …
     6 5d764eb59b5587e5e03b    20 pdftools the Setsiebucks â€” prefer --shoot-- not…
     7 5d764eb59b5587e5e03b    20 pdftools Lobengula treated his advisers â€”Traces…
     8 eb92273a13dce38242cc   255 pdftools --HUNTING-- EXPERIENCES. 229 CHAPTER IX. 
     9 eb92273a13dce38242cc   255 pdftools Fortunately however April, the Bushman, …
    10 eb92273a13dce38242cc   255 pdftools Wasps' Xestsâ€” --Crocodile-- Pondâ€” Se…
    # … with 34 more rows
…
