Access Time Travellers data via API • timetravelData
…
Basic Search

See full documentation on Elasticsearch’s website

Basic searches uses an analyzer that independently converts each part into tokens before returning matching documents:

query <- "(new york city) OR (big apple)"
out <- query_text(query)
out %>% unnest()

Warning: `cols` is now required when using `unnest()`.
ℹ Please use `cols = c(hightlight)`.

# A tibble: 44 × 6
   guid_hash            translate pg_nr tokens english_words hightlight         
   <chr>                <chr>     <int>  <int>         <int> <chr>              
 1 8b53b078c4a68bd218b9 no          460    228            72 Still, --New-- --Y…
 2 8b53b078c4a68bd218b9 no          460    228            72 Neither London nor…
 3 8b53b078c4a68bd218b9 no          460    228            72 While the --New-- …
 4 8b53b078c4a68bd218b9 no          460    228            72 Some of the --big-…
 5 8b53b078c4a68bd218b9 no          460    228            72 As for restaurants…
 6 9f12c0ed7ad30e8e63a6 no          117    362           123 When Jack Kkago re…
 7 9f12c0ed7ad30e8e63a6 no          117    362           123 JA CK XKA G O REA …
 8 9f12c0ed7ad30e8e63a6 no          117    362           123 These nkagos have …
 9 9f12c0ed7ad30e8e63a6 no          117    362           123 Jack seemed to hav…
10 9f12c0ed7ad30e8e63a6 no          117    362           123 home in Newark, --…
# ℹ 34 more rows

A term can be a single word quick or brown - or a phrase, surrounded by double quotes - “quick brown”

query <- '"new york"'
out <- query_text(query)
out %>% unnest()

Warning: `cols` is now required when using `unnest()`.
ℹ Please use `cols = c(hightlight)`.

# A tibble: 38 × 6
   guid_hash            translate pg_nr tokens english_words hightlight         
   <chr>                <chr>     <int>  <int>         <int> <chr>              
 1 7ca8d2a7f75a7d7b97c6 no          340    189            14 Vail, --New-- --Yo…
 2 7ca8d2a7f75a7d7b97c6 no          340    189            14 --New-- --York--, …
 3 7ca8d2a7f75a7d7b97c6 no          340    189            14 James, --New-- --Y…
 4 7ca8d2a7f75a7d7b97c6 no          340    189            14 Esther Herrmann, -…
 5 7ca8d2a7f75a7d7b97c6 no          340    189            14 Gillingham, --New-…
 6 7ca8d2a7f75a7d7b97c6 no          340    189            14 Meyer, --New-- --Y…
 7 04ca493b4a0ca67235e3 yes         459    257            97 --NEW-----YORK-- -…
 8 04ca493b4a0ca67235e3 yes         459    257            97 I cannot say that …
 9 04ca493b4a0ca67235e3 yes         459    257            97 From Niagara Falls…
10 04ca493b4a0ca67235e3 yes         459    257            97 The best way to ma…
# ℹ 28 more rows
…
Boolean

By default, all terms are optional, as long as one term matches. A search for foo bar baz will find any document that contains one or more of foo or bar or baz. We have already discussed the default_operator above which allows you to force all terms to be required, but there are also boolean operators which can be used in the query string itself to provide more control.

The preferred operators are + (this term must be present) and - (this term must not be present). All other terms are optional. For example, this query:

query <- "crocodile shoot +hunting -shoes"
out <- query_text(query)
out %>% unnest()

Warning: `cols` is now required when using `unnest()`.
ℹ Please use `cols = c(hightlight)`.

# A tibble: 36 × 6
   guid_hash            translate pg_nr tokens english_words hightlight         
   <chr>                <chr>     <int>  <int>         <int> <chr>              
 1 a84cdc9a0e701b6360fe no          135    196            69 I took a rifle fro…
 2 a84cdc9a0e701b6360fe no          135    196            69 I had completely r…
 3 a84cdc9a0e701b6360fe no          135    196            69 of a --crocodile--…
 4 a84cdc9a0e701b6360fe no          135    196            69 A --CROCODILE-- GI…
 5 5d764eb59b5587e5e03b no           20    208            69 --Hunting-- again …
 6 5d764eb59b5587e5e03b no           20    208            69 the Setsiebucks â€…
 7 5d764eb59b5587e5e03b no           20    208            69 Lobengula treated …
 8 84a5cc12d1f1d89562c8 yes         460    327           111 Lo Bengula was cau…
 9 84a5cc12d1f1d89562c8 yes         460    327           111 Lo Bengula burst i…
10 84a5cc12d1f1d89562c8 yes         460    327           111 It should be known…
# ℹ 26 more rows
…
